# compile vhdl design source files
vhdl xil_defaultlib  \
"../../../../../../../../Package/MainPackage.vhd" \
"../../../../../model/BRAM32X256.vhd" \
"../../../../../testbench/BRAM32X256_TB.vhd" \

# Do not sort compile order
nosort
